<svg xmlns="http://www.w3.org/2000/svg" width="18" height="18" viewBox="0 0 18 18">
    <g fill="none" fill-rule="evenodd" stroke="#AAB0C0" transform="rotate(-90 9 9)">
        <rect width="17" height="17" x=".5" y=".5" fill="#F3F6F6" rx="2" transform="rotate(180 9 9)"/>
        <path fill="#AAB0C0" d="M10.504 9.027L7.732 6.256a.166.166 0 0 0-.235 0 .166.166 0 0 0 0 .235l2.653 2.653-2.653 2.654a.167.167 0 1 0 .117.284.162.162 0 0 0 .117-.05l2.772-2.77a.165.165 0 0 0 0-.235z"/>
    </g>
</svg>
