<svg xmlns="http://www.w3.org/2000/svg" width="16" height="16" viewBox="0 0 16 16">
    <g fill="#AAB0C0" fill-rule="evenodd">
        <path d="M14.043 8H2.479C2.214 8 2 8.2 2 8.447v5.367c0 .247.214.447.48.447h11.563c.264 0 .479-.2.479-.447V8.447c0-.247-.215-.447-.48-.447zM3 12.789h1.917V11H3v1.789zm0-2h1.917V9H3v1.789zm3 2h1.98V11H6v1.789zm0-2h1.98V9H6v1.789zm3 2h1.917V11H9v1.789zm0-2h1.917V9H9v1.789zm2 2h1.917V11H11v1.789zm0-2h1.917V9H11v1.789z"/>
        <path d="M14.58 1.869h-.469V1.4a1.405 1.405 0 0 0-2.81 0v.468H9.429V1.4a1.405 1.405 0 0 0-2.81 0v.468H4.684V1.4a1.405 1.405 0 0 0-2.81 0v.468h-.468C.63 1.869 0 2.497 0 3.27v11.274c0 .773.63 1.402 1.405 1.402H14.58c.774 0 1.404-.63 1.404-1.402V3.27c0-.773-.63-1.401-1.404-1.401zM12 1.467a.468.468 0 0 1 .937 0v1.869a.468.468 0 0 1-.937 0V1.467zm-5 0a.468.468 0 0 1 .937 0v1.869a.468.468 0 0 1-.937 0V1.467zm-5 0a.468.468 0 0 1 .937 0v1.869a.468.468 0 0 1-.937 0V1.467zm13.111 13.475c0 .257-.21.467-.468.467H1.468A.468.468 0 0 1 1 14.942V7h14.111v7.942zm0-9.077H1V3.467C1 3.21 1.21 3 1.468 3h.469v.467a1.405 1.405 0 0 0 2.81 0V3h1.935v.467a1.405 1.405 0 0 0 2.81 0V3h1.873v.467a1.405 1.405 0 0 0 2.81 0V3h.468c.258 0 .468.21.468.467v2.398z"/>
    </g>
</svg>
