<svg xmlns="http://www.w3.org/2000/svg" width="11" height="15" viewBox="0 0 11 14">
    <path fill="#0EB48F" fill-rule="evenodd" d="M1.425 13.05s.208.95 1.282.95H7.56c1.073 0 1.282-.95 1.282-.95L9.8 3.733H.467l.958 9.317zM7 5.133a.467.467 0 0 1 .933 0l-.466 7a.467.467 0 0 1-.934 0l.467-7zm-2.333 0a.467.467 0 0 1 .933 0v7a.467.467 0 0 1-.933 0v-7zM2.8 4.667c.258 0 .467.208.467.466l.466 7a.467.467 0 0 1-.933 0l-.467-7c0-.257.21-.466.467-.466zm6.72-2.8H7.467V.933c0-.708-.23-.933-.934-.933h-2.8C3.087 0 2.8.313 2.8.933v.934H.747c-.413 0-.747.314-.747.7 0 .388.334.701.747.701H9.52c.413 0 .747-.313.747-.7 0-.387-.334-.7-.747-.7zm-2.987 0h-2.8V.933h2.8v.934z"/>
</svg>
