<svg xmlns="http://www.w3.org/2000/svg" width="12" height="16" viewBox="0 0 12 16">
    <path fill="#AAB0C0" fill-rule="evenodd" d="M1.628 14.914S1.867 16 3.093 16H8.64c1.227 0 1.465-1.086 1.465-1.086L11.2 4.267H.533l1.095 10.647zM8 5.867a.534.534 0 0 1 1.067 0l-.534 8a.534.534 0 0 1-1.066 0l.533-8zm-2.667 0a.534.534 0 0 1 1.067 0v8a.534.534 0 0 1-1.067 0v-8zM3.2 5.333c.295 0 .533.239.533.534l.534 8a.533.533 0 0 1-1.067 0l-.533-8c0-.295.239-.534.533-.534zm7.68-3.199H8.533V1.067C8.533.257 8.272 0 7.467 0h-3.2C3.528 0 3.2.358 3.2 1.067v1.067H.853c-.471 0-.853.358-.853.8 0 .443.382.8.853.8H10.88c.472 0 .853-.357.853-.8 0-.442-.381-.8-.853-.8zm-3.413 0h-3.2V1.067h3.2v1.067z"/>
</svg>
