<svg xmlns="http://www.w3.org/2000/svg" width="22" height="20" viewBox="0 0 22 20">
    <g fill="none" fill-rule="evenodd">
        <path fill="#FE1F3A" d="M8 4c-4.4 0-8 3.6-8 8s3.6 8 8 8 8-3.6 8-8-3.6-8-8-8zm-.8 12h1.6v-4.8H7.2V16zm0-6.4h1.6V8H7.2v1.6z"/>
        <path fill="#FF8100" d="M21.143 8.864L16.327.403A.804.804 0 0 0 15.625 0a.803.803 0 0 0-.703.403l-4.815 8.461a.692.692 0 0 0 .012.757.809.809 0 0 0 .69.379h9.632a.809.809 0 0 0 .69-.379.692.692 0 0 0 .012-.757zm-4.893-.275a.156.156 0 0 1-.047.115.15.15 0 0 1-.11.046h-.937a.149.149 0 0 1-.11-.046.156.156 0 0 1-.046-.115v-.928c0-.045.016-.083.047-.114a.15.15 0 0 1 .11-.047h.937a.15.15 0 0 1 .11.047c.03.03.046.069.046.114v.928zm-.078-3.701a.111.111 0 0 1-.046.08.163.163 0 0 1-.102.032h-.803a.172.172 0 0 1-.104-.032.096.096 0 0 1-.043-.08L15 2.656c0-.045.015-.08.043-.102.038-.036.073-.054.105-.054h.954c.032 0 .067.018.105.054a.111.111 0 0 1 .043.093l-.078 2.24z"/>
    </g>
</svg>
