<svg xmlns="http://www.w3.org/2000/svg" width="14" height="14" viewBox="0 0 14 14">
    <path fill="#FE1F3A" fill-rule="evenodd" d="M7 0C3.15 0 0 3.15 0 7s3.15 7 7 7 7-3.15 7-7-3.15-7-7-7zm-.7 10.5h1.4V6.3H6.3v4.2zm0-5.6h1.4V3.5H6.3v1.4z"/>
</svg>
