<svg xmlns="http://www.w3.org/2000/svg" width="22" height="21" viewBox="0 0 22 21">
    <g fill="none" fill-rule="evenodd">
        <path fill="#AAB0C0" d="M8 5c-4.4 0-8 3.6-8 8s3.6 8 8 8 8-3.6 8-8-3.6-8-8-8zm-.8 12h1.6v-4.8H7.2V17zm0-6.4h1.6V9H7.2v1.6z"/>
        <path fill="#FF1E3A" d="M15.5 0A10.67 10.67 0 0 0 9 2.2l6.5 8.8L22 2.2A10.67 10.67 0 0 0 15.5 0zm0 5.604c-.593 0-1.187.148-1.73.346L11 2.238A8.776 8.776 0 0 1 15.5 1c1.632 0 3.165.446 4.5 1.238L17.181 6a3.821 3.821 0 0 0-1.681-.396z"/>
    </g>
</svg>
