<svg xmlns="http://www.w3.org/2000/svg" width="24" height="24" viewBox="0 0 24 24">
    <path fill="#0EB48F" fill-rule="evenodd" d="M12 24c-1.104 0-2.168-.144-3.192-.432a12.174 12.174 0 0 1-2.868-1.212 11.975 11.975 0 0 1-2.424-1.872 11.97 11.97 0 0 1-1.872-2.424 12.167 12.167 0 0 1-1.212-2.868A11.733 11.733 0 0 1 0 12c0-1.104.144-2.168.432-3.192.288-1.024.692-1.98 1.212-2.868a11.975 11.975 0 0 1 1.872-2.424A11.975 11.975 0 0 1 5.94 1.644C6.828 1.124 7.784.72 8.808.432A11.733 11.733 0 0 1 12 0c1.648 0 3.204.316 4.668.948a12.15 12.15 0 0 1 3.816 2.568 12.15 12.15 0 0 1 2.568 3.816C23.684 8.796 24 10.352 24 12c0 1.104-.144 2.168-.432 3.192a12.178 12.178 0 0 1-1.212 2.868 11.975 11.975 0 0 1-1.872 2.424 11.962 11.962 0 0 1-2.424 1.872c-.888.52-1.844.924-2.868 1.212A11.733 11.733 0 0 1 12 24zm5.75-16.865H6.25a.423.423 0 0 0-.29.108.379.379 0 0 0-.122.299v1.267c0 .064.024.096.073.096l6.04 3.395.05.024c.031 0 .056-.008.072-.024l5.847-3.395a.188.188 0 0 1 .072-.024c.016 0 .04-.008.073-.024.065 0 .097-.032.097-.096v-1.22a.379.379 0 0 0-.121-.298.424.424 0 0 0-.292-.108zm-8.046 4.659c.017-.016.026-.04.026-.07 0-.047-.018-.07-.051-.07L6.017 9.74c-.051-.015-.094-.015-.128 0-.034 0-.051.024-.051.07v5.015c0 .046.026.077.077.093h.051c.034 0 .051-.008.051-.024l3.687-3.101zm4.47.575c-.017-.05-.057-.058-.121-.025l-1.33.786a.474.474 0 0 1-.508 0l-1.16-.663c-.048-.033-.089-.033-.12 0L6.51 16.644c-.017.016-.025.049-.025.098 0 .016.017.04.049.074.097.032.16.049.193.049h11.337c.033 0 .065-.016.097-.05 0-.065-.008-.106-.024-.122l-3.964-4.324zm3.921-2.64h-.09l-3.034 2.004c-.03 0-.045.025-.045.074-.015.017-.007.042.022.075l3.035 3.636c.03.033.052.05.067.05h.045c.045-.05.067-.083.067-.1v-5.64c0-.032-.022-.065-.067-.098z"/>
</svg>
