<svg xmlns="http://www.w3.org/2000/svg" width="17" height="18" viewBox="0 0 17 18">
    <g fill="#4A4A4A" fill-rule="evenodd">
        <path d="M1.308 16.714h14.384V6.43H1.308v10.285zM3.923 1.607a.31.31 0 0 1 .327-.321h.654a.31.31 0 0 1 .327.321V4.5a.31.31 0 0 1-.092.231.322.322 0 0 1-.235.09H4.25a.31.31 0 0 1-.327-.321V1.607zm7.847 0a.31.31 0 0 1 .326-.321h.654a.31.31 0 0 1 .327.321V4.5a.31.31 0 0 1-.327.321h-.654a.31.31 0 0 1-.327-.321V1.607zm4.842 1.346a1.268 1.268 0 0 0-.92-.382h-1.307v-.964c0-.442-.16-.82-.48-1.135A1.587 1.587 0 0 0 12.75 0h-.654c-.45 0-.834.157-1.154.472-.32.315-.48.693-.48 1.135v.964H6.539v-.964c0-.442-.16-.82-.48-1.135A1.587 1.587 0 0 0 4.903 0H4.25c-.45 0-.834.157-1.154.472-.32.315-.48.693-.48 1.135v.964H1.307c-.355 0-.661.128-.92.382A1.226 1.226 0 0 0 0 3.857v12.857c0 .348.13.65.388.904.259.255.565.382.92.382h14.384c.354 0 .661-.127.92-.382.259-.254.388-.556.388-.904V3.857c0-.348-.13-.65-.388-.904z"/>
        <path d="M5.38 11.988h2.632v2.632c0 .12.162.38.488.38.325 0 .488-.26.488-.38v-2.632h2.632c.12 0 .38-.162.38-.488 0-.326-.26-.488-.38-.488H8.988V8.38c0-.12-.163-.38-.488-.38-.326 0-.488.26-.488.38v2.632H5.38c-.12 0-.38.162-.38.488 0 .325.26.488.38.488"/>
    </g>
</svg>
