// Jest Snapshot v1, https://goo.gl/fbAQLP

exports[`RequestWizard container Component should render without error 1`] = `
<div
  className="sc-bdVaJa fePDys"
>
  <h1>
    Create request
  </h1>
</div>
`;
